{
    "texts": [
            "LAST MOVE",
            "by Team KwaKwa",
            "",
            "Lead Designer",
            "Elias Farhan",
            "",
            "Artists",
            "Dan Iorgulescu",
            "Val Andre Terramorsi",
            "Virgile Paultre",
            "",
            "Game Design",
            "Daniel Gaumier",
            "Daniel Cho",
            "",
            "Music & SFX",
            "Dorian SRed",
            "",
            "VO director and recording",
            "Cody Predum",
            "",
            "Voice Actors",
            "Avi Ballo (male voices)",
            "T. Sawi (female voices)"

    ]
}